k_beepeck = {
	1000.1.1 = {
		change_development_level = 8
	}
	1018.4.4 = {
		government = republic_government
		holder = 42 #Arnold Roysfort
	}
}

c_beepeck = {
	1000.1.1 = {
		change_development_level = 18
	}
}

c_saltmarsh = {
	1000.1.1 = {
		change_development_level = 7
	}
}