#k_avamezan
##d_avamezan
###c_erubas
632 = {		#Erubas

    # Misc
    culture = akalsesi
    religion = cult_of_the_law
    holding = castle_holding
    # History
}

6620 = {		#

    # Misc
    culture = akalsesi
    religion = cult_of_the_law
    holding = none
    # History
}

6621 = {		#

    # Misc
    culture = akalsesi
    religion = cult_of_the_law
    holding = none
    # History
}

###c_dazar_avamezan
633 = {		#Panuzan

    # Misc
    culture = akalsesi
    religion = cult_of_the_law
    holding = castle_holding
    # History
}

6622 = {		#

    # Misc
    culture = akalsesi
    religion = cult_of_the_law
    holding = none
    # History
}

6623 = {		#

    # Misc
    culture = akalsesi
    religion = cult_of_the_law
    holding = none
    # History
}

6624 = {		#

    # Misc
    culture = akalsesi
    religion = cult_of_the_law
    holding = none
    # History
}

###c_kutiriq
630 = {		#Kutiriq

    # Misc
    culture = akalsesi
    religion = cult_of_the_law
    holding = castle_holding
    # History
}

6616 = {		#

    # Misc
    culture = akalsesi
    religion = cult_of_the_law
    holding = none
    # History
}

6617 = {		#

    # Misc
    culture = akalsesi
    religion = cult_of_the_law
    holding = none
    # History
}

6618 = {		#

    # Misc
    culture = akalsesi
    religion = cult_of_the_law
    holding = none
    # History
}

6619 = {		#

    # Misc
    culture = akalsesi
    religion = cult_of_the_law
    holding = none
    # History
}

###c_nerdu_avamezan
629 = {		#Nerdu Avamezan

    # Misc
    culture = akalsesi
    religion = cult_of_the_law
    holding = castle_holding
    # History
}

6613 = {		#

    # Misc
    culture = akalsesi
    religion = cult_of_the_law
    holding = none
    # History
}

6614 = {		#

    # Misc
    culture = akalsesi
    religion = cult_of_the_law
    holding = none
    # History
}

6615 = {		#

    # Misc
    culture = akalsesi
    religion = cult_of_the_law
    holding = none
    # History
}