﻿#########################################################
#														#
#  DO NOT LEAVE GAPS IN "index" OR THE GAME WILL CRASH  #
#														#
#########################################################

interaction_category_admin = {
	index = 0
	desc = "ADMIN_ACTIONS"
}

interaction_category_diplomacy = {
	index = 1
	desc = "DIPLOMACY_ACTIONS"
}

interaction_category_friendly = {
	index = 2
	desc = "FRIENDLY_ACTIONS"
}

interaction_category_clan = {
	index = 3
	desc = "CLAN_ACTIONS"
}

interaction_category_laamp =  {
	index = 4
	desc = "LAAMP_ACTIONS"
}

interaction_category_hostile = {
	index = 5
	desc = "HOSTILE_ACTIONS"
}

interaction_category_diarch = {
	index = 6
	desc = "DIARCH_ACTIONS"
}

interaction_category_vassal = {
	index = 7
	desc = "VASSAL_ACTIONS"
}

interaction_category_prison = {
	index = 8
	desc = "IMPRISOMENT_ACTIONS"
}

interaction_category_religion = {
	index = 9
	desc = "RELIGIOUS_ACTIONS"
}

interaction_category_spells = { # Anbennar
	index = 10
	desc = "SPELLS_ACTIONS"
}

interaction_category_uncategorized = {
	index = 11 # Anbennar: was 10
	default = yes
	desc = "UNCATEGORIZED_ACTIONS"
}

interaction_debug_main = {
	index = 12 # Anbennar: was 11
	desc =  "DEBUG_MAIN"
}

interaction_debug_admin = {
	index = 13 # Anbennar: was 12
	desc = "interaction_debug_admin"
}
