﻿ai_conqueror_yearly_effect = {
	if = {
		limit = {
			ai_has_conqueror_personality = yes
			is_independent_ruler = yes
		}
		save_scope_as = root_scope
		
		###### BUDGETING
		if = {
			limit = {
				is_at_war = no
				years_from_game_start >= 5
				NOT = {
					has_character_flag = conqueror_anti_pacing_flag
				}
				primary_title = { title_held_years >= 3 } # Do not go into buildup mode if there's a brother you need to destroy immediately!
				OR = {
					any_neighboring_and_across_water_top_liege_realm_owner = {
						count = all
						current_military_strength >= scope:root_scope.max_military_strength
						NOR = {
							is_allied_to = scope:root_scope
							has_relation_friend = scope:root_scope
							has_relation_lover = scope:root_scope
						}
					}
					any_neighboring_and_across_water_top_liege_realm_owner = {
						count >= 2
						current_military_strength >= scope:root_scope.max_military_strength
						NOR = {
							is_allied_to = scope:root_scope
							has_relation_friend = scope:root_scope
							has_relation_lover = scope:root_scope
						}
					}
					any_vassal = {
						exists = joined_faction
						joined_faction = {
							faction_power >= faction_power_halfway_threshold
						}
					}
					AND = {
						NOT = { ai_should_get_conqueror_bonuses = yes } # They have a 75% discount
						monthly_character_income_minus_expenses > half_monthly_character_income # Try to spend at least 50% of income on MaA!
					}
				}
			}
			add_character_flag = { # Conquerors should sometimes spend on MaA, if there are strong neighbours
				flag = conqueror_pacing_flag
				years = 3
			}
			add_character_flag = {
				flag = conqueror_anti_pacing_flag
				years = 10
			}
		}
		if = {
			limit = {
				has_character_flag = conqueror_pacing_flag
			}
			move_budget_gold = { gold = long_term_gold from = budget_long_term to = budget_short_term }
			move_budget_gold = { gold = war_chest_gold from = budget_war_chest to = budget_short_term }
		}
		else = { # Conquerors are special; they don't care about states or eras - they just want to conquer, and put their resources towards just that.
			move_budget_gold = { gold = long_term_gold from = budget_long_term to = budget_war_chest }
			move_budget_gold = { gold = short_term_gold from = budget_short_term to = budget_war_chest }
			# Conquerors have no concern for the future; only here and now matters
			move_budget_gold = { gold = long_term_gold from = budget_long_term to = budget_short_term }
		}
		
		###### LIFESTYLES
		if = { # Conquerors change lifestyle focus to suit their needs
			limit = {
				NOT = { has_character_flag = ai_focus_cd } # No cheating!
			}
			if = {
				limit = {
					is_at_war = no
					war_chest_gold < war_chest_gold_maximum
					NOT = { has_focus = stewardship_wealth_focus }
				}
				set_focus = stewardship_wealth_focus
				add_character_flag = {
					flag = ai_focus_cd
					years = 5
				}
			}
			else_if = { # Prestige is important for CB's
				limit = {
					is_at_war = no
					OR = {
						AND = {
							prestige_level < 4
							can_use_conquest_cbs_trigger = yes
						}
						prestige < 1000
					}
					NOT = { has_focus = diplomacy_majesty_focus }
					NOT = { has_trait = august }
				}
				set_focus = diplomacy_majesty_focus
				add_character_flag = {
					flag = ai_focus_cd
					years = 5
				}
			}
			else_if = { # Certain conquerors will level up the skulduggery tree so they can murder important enemies to weaken them
				limit = {
					is_at_war = no
					intrigue >= martial
					intrigue >= 12
					NOT = { has_focus = intrigue_skulduggery_focus }
					NOT = { has_trait = schemer }
				}
				set_focus = intrigue_skulduggery_focus
				add_character_flag = {
					flag = ai_focus_cd
					years = 5
				}
			}
			else_if = {
				limit = {
					is_commanding_army = yes
					NOT = { has_focus = martial_chivalry_focus }
				}
				set_focus = martial_chivalry_focus
				add_character_flag = {
					flag = ai_focus_cd
					years = 5
				}
			}
			else_if = {
				limit = {
					NOT = { has_focus = martial_authority_focus }
					any_held_title = {
						tier = tier_county
						county_control < 100
					}
				}
				set_focus = martial_authority_focus
				add_character_flag = {
					flag = ai_focus_cd
					years = 5
				}
			}
			else_if = {
				limit = {
					NOT = { has_focus = martial_strategy_focus }
				}
				set_focus = martial_strategy_focus
				add_character_flag = {
					flag = ai_focus_cd
					years = 5
				}
			}
		}
		
		##### SCHEMES
		if = { # End murder schemes that are useless
			limit = {
				any_scheme = {
					scheme_type = murder
					is_scheme_exposed = yes
				}
			}
			every_scheme = {
				limit = {
					scheme_type = murder
					is_scheme_exposed = yes
				}
				end_scheme = yes
			}
		}
		if = { # Murders
			limit = {
				NOT = { # Really honorable characters do not stoop this low, ever
					ai_honor >= high_positive_ai_value
				}
				OR = {
					NOT = {
						any_scheme = {
							OR = {
								scheme_type = murder
								scheme_type = abduct
								scheme_type = claim_throne
								scheme_type = fabricate_hook
							}
						}
					}
					AND = {
						has_perk = twice_schemed_perk
						any_scheme = {
							count < 2
							OR = {
								scheme_type = murder
								scheme_type = abduct
								scheme_type = claim_throne
								scheme_type = fabricate_hook
							}
						}
					}
				}
			}
			every_neighboring_and_across_water_top_liege_realm_owner = { # Weaken strong neighbours
				limit = {
					save_temporary_scope_as = target_scope
					current_military_strength >= scope:target_scope.current_military_strength
					scope:root_scope = { has_any_cb_on = scope:target_scope }
					NOR = {
						is_allied_to = scope:root_scope
						has_relation_friend = scope:root_scope
						has_relation_lover = scope:root_scope
					}
					OR = {
						AND = { # Children are usually weaker rulers
							is_adult = yes
							primary_heir ?= {
								is_adult = no
							}
						}
						AND = { # Split the realm
							has_partition_succession_realm_law_trigger = yes
							any_heir = {
								count >= 2
							}
						}
					}
					scope:root_scope = {
						can_start_scheme = {
							type = murder
							target_character = scope:target_scope
						}
					}
				}
				add_to_list = targets
			}
			every_targeting_faction = {
				limit = {
					faction_is_type = claimant_faction
					exists = special_character
					save_temporary_scope_as = faction_in_question
					scope:root_scope = {
						can_start_scheme = {
							type = murder
							target_character = scope:faction_in_question.special_character 
						}
					}
				}
				special_character = {
					add_to_list = targets
				}
			}
			every_relation = {
				type = rival
				add_to_list = targets
			}
			random_in_list = {
				list = targets
				save_scope_as = murder_target
			}
			if = {
				limit = {
					exists = scope:murder_target
				}
				start_scheme = {
					type = murder
					target_character = scope:murder_target
				}
			}
		}
		if = { # End hook schemes that are useless
			limit = {
				any_scheme = {
					scheme_type = fabricate_hook
					is_scheme_exposed = yes
				}
			}
			every_scheme = {
				limit = {
					scheme_type = fabricate_hook
					is_scheme_exposed = yes
				}
				end_scheme = yes
			}
		}
		if = { # Fabricate Hook
			limit = {
				has_perk = truth_is_relative_perk
				OR = {
					NOT = {
						any_scheme = {
							OR = {
								scheme_type = murder
								scheme_type = abduct
								scheme_type = claim_throne
								scheme_type = fabricate_hook
							}
						}
					}
					AND = {
						has_perk = twice_schemed_perk
						any_scheme = {
							count < 2
							OR = {
								scheme_type = murder
								scheme_type = abduct
								scheme_type = claim_throne
								scheme_type = fabricate_hook
							}
						}
					}
				}
			}
			every_courtier = {
				limit = {
					is_theocratic_lessee = yes
					scope:root_scope = {
						can_start_scheme = {
							type = fabricate_hook
							target_character = prev
						}
					}
				}
				add_to_list = hook_targets
			}
			every_vassal = {
				limit = {
					highest_held_title_tier >= tier_county
					government_has_flag = government_is_feudal
					vassal_contract_can_be_modified_trigger = yes
					scope:root_scope = {
						can_start_scheme = {
							type = fabricate_hook
							target_character = prev
						}
					}
				}
				add_to_list = hook_targets
			}
			if = {
				limit = {
					has_perk = golden_obligations_perk
				}
				every_vassal = {
					limit = {
						gold >= 200
						scope:root_scope = {
							can_start_scheme = {
								type = fabricate_hook
								target_character = prev
							}
						}
					}
					add_to_list = hook_targets
				}
				every_neighboring_and_across_water_top_liege_realm_owner = {
					limit = {
						gold >= 100
						scope:root_scope = {
							can_start_scheme = {
								type = fabricate_hook
								target_character = prev
							}
						}
					}
					add_to_list = hook_targets
				}
			}
			random_in_list = {
				list = hook_targets
				weight = {
					base = 1
					modifier = {
						add = primary_title.tier
					}
				}
				save_scope_as = hook_target
			}
			if = {
				limit = {
					exists = scope:hook_target
				}
				start_scheme = {
					type = fabricate_hook
					target_character = scope:hook_target
				}
			}
		}
		
		if = { # Sway
			limit = {
				OR = {
					NOT = {
						any_scheme = {
							OR = {
								scheme_type = befriend
								scheme_type = sway
								scheme_type = seduce
								scheme_type = courting
								scheme_type = elope
								scheme_type = learn_language
							}
						}
					}
					AND = {
						OR = {
							dynasty ?= { has_dynasty_perk = glory_legacy_5 }
							AND = {
								has_royal_court = yes
								has_dlc_feature = royal_court
								has_court_type = court_diplomatic
								court_grandeur_current_level >= 10
							}
						}
						any_scheme = {
							count < 2
							OR = {
								scheme_type = befriend
								scheme_type = sway
								scheme_type = seduce
								scheme_type = courting
								scheme_type = elope
								scheme_type = learn_language
							}
						}
					}
					AND = {
						dynasty ?= { has_dynasty_perk = glory_legacy_5 }
						has_royal_court = yes
						has_dlc_feature = royal_court
						has_court_type = court_diplomatic
						court_grandeur_current_level >= 10
						any_scheme = {
							count < 3
							OR = {
								scheme_type = befriend
								scheme_type = sway
								scheme_type = seduce
								scheme_type = courting
								scheme_type = elope
								scheme_type = learn_language
							}
						}
					}
				}
			}
			every_courtier = {
				limit = {
					OR = {
						is_theocratic_lessee = yes
						has_council_position = councillor_spymaster
					}
					opinion = {
						target = scope:root_scope
						value < 100
					}
					scope:root_scope = {
						can_start_scheme = {
							type = sway
							target_character = prev
						}
					}
				}
				add_to_list = sway_targets
			}
			every_vassal = {
				limit = {
					highest_held_title_tier >= tier_county
					opinion = {
						target = scope:root_scope
						value < 100
					}
					scope:root_scope = {
						can_start_scheme = {
							type = sway
							target_character = prev
						}
					}
				}
				add_to_list = sway_targets
			}
			random_in_list = {
				list = sway_targets
				weight = {
					base = 1
					modifier = {
						add = 1000
						is_theocratic_lessee = yes
					}
					modifier = {
						add = 1000
						opinion = {
							target = scope:root_scope
							value <= 0
						}
					}
				}
				save_scope_as = sway_target
			}
			if = {
				limit = {
					exists = scope:sway_target
				}
				start_scheme = {
					type = sway
					target_character = scope:sway_target
				}
			}
		}
		
		###### WAR!
		#if = {
		#	limit = {
		#		is_at_war = no
		#		war_chest_gold >= war_chest_gold_maximum
		#		NOT = {
		#			has_character_flag = conqueror_pacing_flag
		#		}
		#	}
		#	# High-impact wars
		#	every_neighboring_and_across_water_top_liege_realm_owner = {
		#		limit = {
		#			save_temporary_scope_as = target_scope
		#			scope:root_scope = {
		#				NOR = {
		#					has_truce = scope:target_scope
		#					is_allied_to = scope:target_scope
		#					has_relation_friend = scope:target_scope
		#					has_relation_lover = scope:target_scope
		#				}
		#				current_military_strength >= scope:target_scope.current_military_strength
		#				OR = {
		#					AND = { # Claim wars
		#						has_cb_on = { target = scope:target_scope cb = claim_cb }
		#						OR = {
		#							any_claim = {
		#								any_in_de_jure_hierarchy = {
		#									continue = { tier > tier_county }
		#									count >= 3
		#									tier = tier_county
		#									holder.top_liege = scope:target_scope.top_liege
		#								}
		#								any_in_de_jure_hierarchy = {
		#									continue = { tier > tier_county }
		#									tier = tier_county
		#									holder.top_liege = scope:target_scope.top_liege
		#									any_neighboring_county = {
		#										holder.top_liege = scope:root_scope.top_liege
		#									}
		#								}
		#								holder.top_liege = scope:target_scope.top_liege
		#							}
		#							any_vassal_or_below = {
		#								any_claim = {
		#									tier < scope:root_scope.primary_title.tier
		#									any_in_de_jure_hierarchy = {
		#										continue = { tier > tier_county }
		#										count >= 3
		#										tier = tier_county
		#										holder.top_liege = scope:target_scope.top_liege
		#									}
		#									any_in_de_jure_hierarchy = {
		#										continue = { tier > tier_county }
		#										tier = tier_county
		#										holder.top_liege = scope:target_scope.top_liege
		#										any_neighboring_county = {
		#											holder.top_liege = scope:root_scope.top_liege
		#										}
		#									}
		#									holder.top_liege = scope:target_scope.top_liege
		#								}
		#							}
		#							any_courtier = {
		#								any_claim = {
		#									tier < scope:root_scope.primary_title.tier
		#									any_in_de_jure_hierarchy = {
		#										continue = { tier > tier_county }
		#										count >= 3
		#										tier = tier_county
		#										holder.top_liege = scope:target_scope.top_liege
		#									}
		#									any_in_de_jure_hierarchy = {
		#										continue = { tier > tier_county }
		#										tier = tier_county
		#										holder.top_liege = scope:target_scope.top_liege
		#										any_neighboring_county = {
		#											holder.top_liege = scope:root_scope.top_liege
		#										}
		#									}
		#									holder.top_liege = scope:target_scope.top_liege
		#								}
		#							}
		#						}
		#					}
		#					AND = { # Duchy-sized wars
		#						OR = {
		#							has_cb_on = { target = scope:target_scope cb = duchy_conquest_cb }
		#							has_cb_on = { target = scope:target_scope cb = religious_war }
		#						}
		#						scope:target_scope = {
		#							any_realm_de_jure_duchy = {
		#								any_in_de_jure_hierarchy = {
		#									continue = { tier > tier_county }
		#									count >= 2
		#									tier = tier_county
		#									holder.top_liege = scope:target_scope.top_liege
		#								}
		#								any_in_de_jure_hierarchy = {
		#									continue = { tier > tier_county }
		#									tier = tier_county
		#									holder.top_liege = scope:target_scope.top_liege
		#									any_neighboring_county = {
		#										holder.top_liege = scope:root_scope.top_liege
		#									}
		#								}
		#							}
		#						}
		#					}
		#					AND = { # Kingdom-sized wars
		#						OR = {
		#							has_cb_on = { target = scope:target_scope cb = imperial_reconquest_cb }
		#							has_cb_on = { target = scope:target_scope cb = major_religious_war }
		#							has_cb_on = { target = scope:target_scope cb = invasion_war }
		#							has_cb_on = { target = scope:target_scope cb = clan_invasion_war }
		#							has_cb_on = { target = scope:target_scope cb = mongol_invasion_war }
		#							has_cb_on = { target = scope:target_scope cb = directed_great_holy_war }
		#						}
		#						scope:target_scope = {
		#							any_realm_de_jure_kingdom = {
		#								any_in_de_jure_hierarchy = {
		#									continue = { tier > tier_county }
		#									count >= 5
		#									tier = tier_county
		#									holder.top_liege = scope:target_scope.top_liege
		#								}
		#								any_in_de_jure_hierarchy = {
		#									continue = { tier > tier_county }
		#									tier = tier_county
		#									holder.top_liege = scope:target_scope.top_liege
		#									any_neighboring_county = {
		#										holder.top_liege = scope:root_scope.top_liege
		#									}
		#								}
		#							}
		#						}
		#					}
		#					AND = { # Subjugation wars
		#						scope:target_scope.sub_realm_size >= 5
		#						has_cb_on = { target = scope:target_scope cb = tribal_subjugation_cb }
		#					}
		#					AND = { # Vassalization/Full De Jure wars
		#						scope:target_scope.sub_realm_size >= 3
		#						OR = {
		#							has_cb_on = { target = scope:target_scope cb = vassalization_cb }
		#							has_cb_on = { target = scope:target_scope cb = de_jure_cb }
		#						}
		#					}
		#				}
		#			}
		#		}
		#		add_to_list = high_value_targets
		#	}
		#	# Find a high-impact war if possible
		#	if = {
		#		limit = {
		#			any_in_list = {
		#				list = high_value_targets
		#				is_alive = yes
		#			}
		#		}
		#		random_in_list = {
		#			list = high_value_targets
		#			limit = {
		#				save_temporary_scope_as = target_scope
		#				scope:root_scope = {
		#					has_cb_on = { target = scope:target_scope cb = claim_cb }
		#					any_claim = {
		#						tier >= tier_kingdom
		#						any_in_de_jure_hierarchy = {
		#							continue = { tier > tier_county }
		#							count >= 3
		#							tier = tier_county
		#							holder.top_liege = scope:target_scope.top_liege
		#						}
		#						any_in_de_jure_hierarchy = {
		#							continue = { tier > tier_county }
		#							tier = tier_county
		#							holder.top_liege = scope:target_scope.top_liege
		#							any_neighboring_county = {
		#								holder.top_liege = scope:root_scope.top_liege
		#							}
		#						}
		#						holder.top_liege = scope:target_scope.top_liege
		#					}
		#				}
		#			}
		#			alternative_limit = {
		#				save_temporary_scope_as = target_scope
		#				scope:root_scope = {
		#					OR = {
		#						has_cb_on = { target = scope:target_scope cb = imperial_reconquest_cb }
		#						has_cb_on = { target = scope:target_scope cb = major_religious_war }
		#						has_cb_on = { target = scope:target_scope cb = invasion_war }
		#						has_cb_on = { target = scope:target_scope cb = clan_invasion_war }
		#						has_cb_on = { target = scope:target_scope cb = mongol_invasion_war }
		#						has_cb_on = { target = scope:target_scope cb = directed_great_holy_war }
		#					}
		#					scope:target_scope = {
		#						any_realm_de_jure_kingdom = {
		#							any_in_de_jure_hierarchy = {
		#								continue = { tier > tier_county }
		#								count >= 20
		#								tier = tier_county
		#								holder.top_liege = scope:target_scope.top_liege
		#							}
		#							any_in_de_jure_hierarchy = {
		#								continue = { tier > tier_county }
		#								tier = tier_county
		#								holder.top_liege = scope:target_scope.top_liege
		#								any_neighboring_county = {
		#									holder.top_liege = scope:root_scope.top_liege
		#								}
		#							}
		#						}
		#					}
		#				}
		#			}
		#			alternative_limit = {
		#				save_temporary_scope_as = target_scope
		#				scope:root_scope = {
		#					OR = {
		#						has_cb_on = { target = scope:target_scope cb = imperial_reconquest_cb }
		#						has_cb_on = { target = scope:target_scope cb = major_religious_war }
		#						has_cb_on = { target = scope:target_scope cb = invasion_war }
		#						has_cb_on = { target = scope:target_scope cb = clan_invasion_war }
		#						has_cb_on = { target = scope:target_scope cb = mongol_invasion_war }
		#						has_cb_on = { target = scope:target_scope cb = directed_great_holy_war }
		#					}
		#					scope:target_scope = {
		#						any_realm_de_jure_kingdom = {
		#							any_in_de_jure_hierarchy = {
		#								continue = { tier > tier_county }
		#								count >= 10
		#								tier = tier_county
		#								holder.top_liege = scope:target_scope.top_liege
		#							}
		#							any_in_de_jure_hierarchy = {
		#								continue = { tier > tier_county }
		#								tier = tier_county
		#								holder.top_liege = scope:target_scope.top_liege
		#								any_neighboring_county = {
		#									holder.top_liege = scope:root_scope.top_liege
		#								}
		#							}
		#						}
		#					}
		#				}
		#			}
		#			alternative_limit = {
		#				save_temporary_scope_as = target_scope
		#				scope:root_scope = {
		#					OR = {
		#						has_cb_on = { target = scope:target_scope cb = imperial_reconquest_cb }
		#						has_cb_on = { target = scope:target_scope cb = major_religious_war }
		#						has_cb_on = { target = scope:target_scope cb = invasion_war }
		#						has_cb_on = { target = scope:target_scope cb = clan_invasion_war }
		#						has_cb_on = { target = scope:target_scope cb = mongol_invasion_war }
		#						has_cb_on = { target = scope:target_scope cb = directed_great_holy_war }
		#					}
		#					scope:target_scope = {
		#						any_realm_de_jure_kingdom = {
		#							any_in_de_jure_hierarchy = {
		#								continue = { tier > tier_county }
		#								count >= 5
		#								tier = tier_county
		#								holder.top_liege = scope:target_scope.top_liege
		#							}
		#							any_in_de_jure_hierarchy = {
		#								continue = { tier > tier_county }
		#								tier = tier_county
		#								holder.top_liege = scope:target_scope.top_liege
		#								any_neighboring_county = {
		#									holder.top_liege = scope:root_scope.top_liege
		#								}
		#							}
		#						}
		#					}
		#				}
		#			}
		#			alternative_limit = {
		#				save_temporary_scope_as = target_scope
		#				scope:root_scope = {
		#					scope:target_scope.sub_realm_size >= 20
		#					has_cb_on = { target = scope:target_scope cb = tribal_subjugation_cb }
		#				}
		#			}
		#			alternative_limit = {
		#				save_temporary_scope_as = target_scope
		#				scope:root_scope = {
		#					scope:target_scope.sub_realm_size >= 10
		#					has_cb_on = { target = scope:target_scope cb = tribal_subjugation_cb }
		#				}
		#			}
		#			alternative_limit = {
		#				save_temporary_scope_as = target_scope
		#				scope:root_scope = {
		#					scope:target_scope.sub_realm_size >= 5
		#					has_cb_on = { target = scope:target_scope cb = tribal_subjugation_cb }
		#				}
		#			}
		#			alternative_limit = {
		#				save_temporary_scope_as = target_scope
		#				scope:root_scope = {
		#					scope:target_scope.sub_realm_size >= 3
		#					OR = {
		#						has_cb_on = { target = scope:target_scope cb = vassalization_cb }
		#						has_cb_on = { target = scope:target_scope cb = de_jure_cb }
		#					}
		#				}
		#			}
		#			alternative_limit = {
		#				save_temporary_scope_as = target_scope
		#				scope:root_scope = {
		#					OR = {
		#						has_cb_on = { target = scope:target_scope cb = duchy_conquest_cb }
		#						has_cb_on = { target = scope:target_scope cb = religious_war }
		#					}
		#					scope:target_scope = {
		#						any_realm_de_jure_duchy = {
		#							any_in_de_jure_hierarchy = {
		#								continue = { tier > tier_county }
		#								count >= 2
		#								tier = tier_county
		#								holder.top_liege = scope:target_scope.top_liege
		#							}
		#							any_in_de_jure_hierarchy = {
		#								continue = { tier > tier_county }
		#								tier = tier_county
		#								holder.top_liege = scope:target_scope.top_liege
		#								any_neighboring_county = {
		#									holder.top_liege = scope:root_scope.top_liege
		#								}
		#							}
		#						}
		#					}
		#				}
		#			}
		#			alternative_limit = {
		#				save_temporary_scope_as = target_scope
		#				scope:root_scope = {
		#					has_cb_on = { target = scope:target_scope cb = claim_cb }
		#					OR = {
		#						any_claim = {
		#							any_in_de_jure_hierarchy = {
		#								continue = { tier > tier_county }
		#								count >= 3
		#								tier = tier_county
		#								holder.top_liege = scope:target_scope.top_liege
		#							}
		#							any_in_de_jure_hierarchy = {
		#								continue = { tier > tier_county }
		#								tier = tier_county
		#								holder.top_liege = scope:target_scope.top_liege
		#								any_neighboring_county = {
		#									holder.top_liege = scope:root_scope.top_liege
		#								}
		#							}
		#							holder.top_liege = scope:target_scope.top_liege
		#						}
		#						any_vassal_or_below = {
		#							any_claim = {
		#								tier < scope:root_scope.primary_title.tier
		#								any_in_de_jure_hierarchy = {
		#									continue = { tier > tier_county }
		#									count >= 3
		#									tier = tier_county
		#									holder.top_liege = scope:target_scope.top_liege
		#								}
		#								any_in_de_jure_hierarchy = {
		#									continue = { tier > tier_county }
		#									tier = tier_county
		#									holder.top_liege = scope:target_scope.top_liege
		#									any_neighboring_county = {
		#										holder.top_liege = scope:root_scope.top_liege
		#									}
		#								}
		#								holder.top_liege = scope:target_scope.top_liege
		#							}
		#						}
		#						any_courtier = {
		#							any_claim = {
		#								tier < scope:root_scope.primary_title.tier
		#								any_in_de_jure_hierarchy = {
		#									continue = { tier > tier_county }
		#									count >= 3
		#									tier = tier_county
		#									holder.top_liege = scope:target_scope.top_liege
		#								}
		#								any_in_de_jure_hierarchy = {
		#									continue = { tier > tier_county }
		#									tier = tier_county
		#									holder.top_liege = scope:target_scope.top_liege
		#									any_neighboring_county = {
		#										holder.top_liege = scope:root_scope.top_liege
		#									}
		#								}
		#								holder.top_liege = scope:target_scope.top_liege
		#							}
		#						}
		#					}
		#				}
		#			}
		#			alternative_limit = {
		#				is_alive = yes
		#			}
		#			weight = {
		#				base = 1
		#				modifier = {
		#					add = {
		#						value = scope:root_scope.current_military_strength
		#						subtract = current_military_strength
		#					}
		#				}
		#			}
		#			save_scope_as = war_target
		#		}
		#	}
		#	else = {
		#		# Low-impact wars
		#		every_neighboring_and_across_water_top_liege_realm_owner = {
		#			limit = {
		#				save_temporary_scope_as = target_scope
		#				scope:root_scope = {
		#					NOR = {
		#						has_truce = scope:target_scope
		#						has_relation_friend = scope:target_scope
		#						has_relation_lover = scope:target_scope
		#					}
		#					current_military_strength >= scope:target_scope.current_military_strength
		#					OR = {
		#						AND = { # County-sized wars
		#							OR = {
		#								has_cb_on = { target = scope:target_scope cb = county_conquest_cb }
		#								has_cb_on = { target = scope:target_scope cb = minor_religious_war }
		#							}
		#							scope:target_scope = {
		#								any_sub_realm_county = {
		#									holder.top_liege = scope:target_scope.top_liege
		#									any_neighboring_county = {
		#										holder.top_liege = scope:root_scope.top_liege
		#									}
		#								}
		#							}
		#						}
		#					}
		#				}
		#			}
		#			add_to_list = low_value_targets
		#		}
		#		# Find a low-impact war if nothing else is available
		#		if = {
		#			limit = {
		#				any_in_list = {
		#					list = low_value_targets
		#					is_alive = yes
		#				}
		#			}
		#			random_in_list = {
		#				list = low_value_targets
		#				limit = {
		#					is_alive = yes
		#				}
		#				weight = {
		#					base = 1
		#					modifier = {
		#						add = {
		#							value = scope:root_scope.current_military_strength
		#							subtract = current_military_strength
		#						}
		#					}
		#				}
		#				save_scope_as = war_target
		#			}
		#		}
		#	}
		#	
		#	##################
		#	# Declare a war! #
		#	##################
		#	if = {
		#		limit = {
		#			exists = scope:war_target
		#		}
		#		if = { # Personal claims, kingdom size+
		#			limit = {
		#				has_cb_on = { target = scope:war_target cb = claim_cb }
		#				any_claim = {
		#					tier >= tier_kingdom
		#					any_in_de_jure_hierarchy = {
		#						continue = { tier > tier_county }
		#						count >= 3
		#						tier = tier_county
		#						holder.top_liege = scope:war_target.top_liege
		#					}
		#					any_in_de_jure_hierarchy = {
		#						continue = { tier > tier_county }
		#						tier = tier_county
		#						holder.top_liege = scope:war_target.top_liege
		#						any_neighboring_county = {
		#							holder.top_liege = scope:root_scope.top_liege
		#						}
		#					}
		#					holder.top_liege = scope:war_target.top_liege
		#				}
		#			}
		#			save_scope_as = chosen_claimant
		#			random_claim = {
		#				limit = {
		#					tier >= tier_empire
		#					any_in_de_jure_hierarchy = {
		#						continue = { tier > tier_county }
		#						count >= 3
		#						tier = tier_county
		#						holder.top_liege = scope:war_target.top_liege
		#					}
		#					any_in_de_jure_hierarchy = {
		#						continue = { tier > tier_county }
		#						tier = tier_county
		#						holder.top_liege = scope:war_target.top_liege
		#						any_neighboring_county = {
		#							holder.top_liege = scope:root_scope.top_liege
		#						}
		#					}
		#					holder.top_liege = scope:war_target.top_liege
		#				}
		#				alternative_limit = {
		#					tier >= tier_kingdom
		#					any_in_de_jure_hierarchy = {
		#						continue = { tier > tier_county }
		#						count >= 3
		#						tier = tier_county
		#						holder.top_liege = scope:war_target.top_liege
		#					}
		#					any_in_de_jure_hierarchy = {
		#						continue = { tier > tier_county }
		#						tier = tier_county
		#						holder.top_liege = scope:war_target.top_liege
		#						any_neighboring_county = {
		#							holder.top_liege = scope:root_scope.top_liege
		#						}
		#					}
		#					holder.top_liege = scope:war_target.top_liege
		#				}
		#				alternative_limit = {
		#					tier >= tier_duchy
		#					any_in_de_jure_hierarchy = {
		#						continue = { tier > tier_county }
		#						count >= 3
		#						tier = tier_county
		#						holder.top_liege = scope:war_target.top_liege
		#					}
		#					any_in_de_jure_hierarchy = {
		#						continue = { tier > tier_county }
		#						tier = tier_county
		#						holder.top_liege = scope:war_target.top_liege
		#						any_neighboring_county = {
		#							holder.top_liege = scope:root_scope.top_liege
		#						}
		#					}
		#					holder.top_liege = scope:war_target.top_liege
		#				}
		#				save_scope_as = chosen_claim
		#			}
		#			start_war = {
		#				cb = claim_cb
		#				target = scope:war_target
		#				claimant = scope:chosen_claimant
		#				target_title = scope:chosen_claim
		#			}
		#		}
		#		else_if = { # Kingdom-sized wars
		#			limit = {
		#				OR = {
		#					has_cb_on = { target = scope:war_target cb = imperial_reconquest_cb }
		#					has_cb_on = { target = scope:war_target cb = major_religious_war }
		#					has_cb_on = { target = scope:war_target cb = invasion_war }
		#					has_cb_on = { target = scope:war_target cb = clan_invasion_war }
		#					has_cb_on = { target = scope:war_target cb = mongol_invasion_war }
		#					has_cb_on = { target = scope:war_target cb = directed_great_holy_war }
		#				}
		#				scope:war_target = {
		#					any_realm_de_jure_kingdom = {
		#						any_in_de_jure_hierarchy = {
		#							continue = { tier > tier_county }
		#							count >= 5
		#							tier = tier_county
		#							holder.top_liege = scope:war_target.top_liege
		#						}
		#						any_in_de_jure_hierarchy = {
		#							continue = { tier > tier_county }
		#							tier = tier_county
		#							holder.top_liege = scope:war_target.top_liege
		#							any_neighboring_county = {
		#								holder.top_liege = scope:root_scope.top_liege
		#							}
		#						}
		#					}
		#				}
		#			}
		#			scope:war_target = {
		#				random_realm_de_jure_kingdom = {
		#					limit = {
		#						any_in_de_jure_hierarchy = {
		#							continue = { tier > tier_county }
		#							count >= 20
		#							tier = tier_county
		#							holder.top_liege = scope:war_target.top_liege
		#						}
		#						any_in_de_jure_hierarchy = {
		#							continue = { tier > tier_county }
		#							tier = tier_county
		#							holder.top_liege = scope:war_target.top_liege
		#							any_neighboring_county = {
		#								holder.top_liege = scope:root_scope.top_liege
		#							}
		#						}
		#					}
		#					alternative_limit = {
		#						any_in_de_jure_hierarchy = {
		#							continue = { tier > tier_county }
		#							count >= 10
		#							tier = tier_county
		#							holder.top_liege = scope:war_target.top_liege
		#						}
		#						any_in_de_jure_hierarchy = {
		#							continue = { tier > tier_county }
		#							tier = tier_county
		#							holder.top_liege = scope:war_target.top_liege
		#							any_neighboring_county = {
		#								holder.top_liege = scope:root_scope.top_liege
		#							}
		#						}
		#					}
		#					alternative_limit = {
		#						any_in_de_jure_hierarchy = {
		#							continue = { tier > tier_county }
		#							count >= 5
		#							tier = tier_county
		#							holder.top_liege = scope:war_target.top_liege
		#						}
		#						any_in_de_jure_hierarchy = {
		#							continue = { tier > tier_county }
		#							tier = tier_county
		#							holder.top_liege = scope:war_target.top_liege
		#							any_neighboring_county = {
		#								holder.top_liege = scope:root_scope.top_liege
		#							}
		#						}
		#					}
		#					save_scope_as = target_title
		#				}
		#			}
		#			if = {
		#				limit = {
		#					has_cb_on = { target = scope:war_target cb = imperial_reconquest_cb }
		#				}
		#				start_war = {
		#					cb = imperial_reconquest_cb
		#					target = scope:war_target
		#					target_title = scope:target_title
		#				}
		#			}
		#			else_if = {
		#				limit = {
		#					has_cb_on = { target = scope:war_target cb = major_religious_war }
		#				}
		#				start_war = {
		#					cb = major_religious_war
		#					target = scope:war_target
		#					target_title = scope:target_title
		#				}
		#			}
		#			else_if = {
		#				limit = {
		#					has_cb_on = { target = scope:war_target cb = invasion_war }
		#				}
		#				start_war = {
		#					cb = invasion_war
		#					target = scope:war_target
		#					target_title = scope:target_title
		#				}
		#			}
		#			else_if = {
		#				limit = {
		#					has_cb_on = { target = scope:war_target cb = clan_invasion_war }
		#				}
		#				start_war = {
		#					cb = clan_invasion_war
		#					target = scope:war_target
		#					target_title = scope:target_title
		#				}
		#			}
		#			else_if = {
		#				limit = {
		#					has_cb_on = { target = scope:war_target cb = mongol_invasion_war }
		#				}
		#				start_war = {
		#					cb = mongol_invasion_war
		#					target = scope:war_target
		#					target_title = scope:target_title
		#				}
		#			}
		#			else = {
		#				limit = {
		#					has_cb_on = { target = scope:war_target cb = directed_great_holy_war }
		#				}
		#				start_war = {
		#					cb = directed_great_holy_war
		#					target = scope:war_target
		#					target_title = scope:target_title
		#				}
		#			}
		#		}
		#		else_if = { # Subjugations
		#			limit = {
		#				has_cb_on = { target = scope:war_target cb = tribal_subjugation_cb }
		#			}
		#			start_war = {
		#				cb = tribal_subjugation_cb
		#				target = scope:war_target
		#			}
		#		}
		#		else_if = {
		#			limit = {
		#				OR = {
		#					has_cb_on = { target = scope:target_scope cb = vassalization_cb }
		#					has_cb_on = { target = scope:target_scope cb = de_jure_cb }
		#				}
		#			}
		#			if = {
		#				limit = {
		#					has_cb_on = { target = scope:target_scope cb = vassalization_cb }
		#				}
		#				start_war = {
		#					cb = vassalization_cb
		#					target = scope:war_target
		#				}
		#			}
		#			else = {
		#				start_war = {
		#					cb = de_jure_cb
		#					target = scope:war_target
		#				}
		#			}
		#		}
		#		else_if = {
		#			limit = {
		#				OR = {
		#					has_cb_on = { target = scope:war_target cb = duchy_conquest_cb }
		#					has_cb_on = { target = scope:war_target cb = religious_war }
		#				}
		#				scope:war_target = {
		#					any_realm_de_jure_duchy = {
		#						any_in_de_jure_hierarchy = {
		#							continue = { tier > tier_county }
		#							count >= 2
		#							tier = tier_county
		#							holder.top_liege = scope:war_target.top_liege
		#						}
		#						any_in_de_jure_hierarchy = {
		#							continue = { tier > tier_county }
		#							tier = tier_county
		#							holder.top_liege = scope:war_target.top_liege
		#							any_neighboring_county = {
		#								holder.top_liege = scope:root_scope.top_liege
		#							}
		#						}
		#					}
		#				}
		#			}
		#			scope:war_target = {
		#				random_realm_de_jure_duchy = {
		#					limit = {
		#						any_in_de_jure_hierarchy = {
		#							continue = { tier > tier_county }
		#							count >= 2
		#							tier = tier_county
		#							holder.top_liege = scope:war_target.top_liege
		#						}
		#						any_in_de_jure_hierarchy = {
		#							continue = { tier > tier_county }
		#							tier = tier_county
		#							holder.top_liege = scope:war_target.top_liege
		#							any_neighboring_county = {
		#								holder.top_liege = scope:root_scope.top_liege
		#							}
		#						}
		#					}
		#					save_scope_as = target_title
		#				}
		#			}
		#			if = {
		#				limit = {
		#					has_cb_on = { target = scope:war_target cb = duchy_conquest_cb }
		#				}
		#				start_war = {
		#					cb = duchy_conquest_cb
		#					target = scope:war_target
		#					target_title = scope:target_title
		#				}
		#			}
		#			else = {
		#				start_war = {
		#					cb = religious_war
		#					target = scope:war_target
		#					target_title = scope:target_title
		#				}
		#			}
		#		}
		#		else_if = { # Claim wars
		#			limit = {
		#				has_cb_on = { target = scope:war_target cb = claim_cb }
		#				OR = {
		#					any_claim = {
		#						any_in_de_jure_hierarchy = {
		#							continue = { tier > tier_county }
		#							count >= 3
		#							tier = tier_county
		#							holder.top_liege = scope:war_target.top_liege
		#						}
		#						any_in_de_jure_hierarchy = {
		#							continue = { tier > tier_county }
		#							tier = tier_county
		#							holder.top_liege = scope:war_target.top_liege
		#							any_neighboring_county = {
		#								holder.top_liege = scope:root_scope.top_liege
		#							}
		#						}
		#						holder.top_liege = scope:war_target.top_liege
		#					}
		#					any_vassal_or_below = {
		#						any_claim = {
		#							tier < scope:root_scope.primary_title.tier
		#							any_in_de_jure_hierarchy = {
		#								continue = { tier > tier_county }
		#								count >= 3
		#								tier = tier_county
		#								holder.top_liege = scope:war_target.top_liege
		#							}
		#							any_in_de_jure_hierarchy = {
		#								continue = { tier > tier_county }
		#								tier = tier_county
		#								holder.top_liege = scope:war_target.top_liege
		#								any_neighboring_county = {
		#									holder.top_liege = scope:root_scope.top_liege
		#								}
		#							}
		#							holder.top_liege = scope:war_target.top_liege
		#						}
		#					}
		#					any_courtier = {
		#						any_claim = {
		#							tier < scope:root_scope.primary_title.tier
		#							any_in_de_jure_hierarchy = {
		#								continue = { tier > tier_county }
		#								count >= 3
		#								tier = tier_county
		#								holder.top_liege = scope:war_target.top_liege
		#							}
		#							any_in_de_jure_hierarchy = {
		#								continue = { tier > tier_county }
		#								tier = tier_county
		#								holder.top_liege = scope:war_target.top_liege
		#								any_neighboring_county = {
		#									holder.top_liege = scope:root_scope.top_liege
		#								}
		#							}
		#							holder.top_liege = scope:war_target.top_liege
		#						}
		#					}
		#				}
		#			}
		#			if = {
		#				limit = {
		#					any_claim = {
		#						any_in_de_jure_hierarchy = {
		#							continue = { tier > tier_county }
		#							count >= 3
		#							tier = tier_county
		#							holder.top_liege = scope:war_target.top_liege
		#						}
		#						any_in_de_jure_hierarchy = {
		#							continue = { tier > tier_county }
		#							tier = tier_county
		#							holder.top_liege = scope:war_target.top_liege
		#							any_neighboring_county = {
		#								holder.top_liege = scope:root_scope.top_liege
		#							}
		#						}
		#						holder.top_liege = scope:war_target.top_liege
		#					}
		#				}
		#				add_to_list = potential_claimants
		#			}
		#			every_vassal_or_below = {
		#				limit = {
		#					any_claim = {
		#						tier < scope:root_scope.primary_title.tier
		#						any_in_de_jure_hierarchy = {
		#							continue = { tier > tier_county }
		#							count >= 3
		#							tier = tier_county
		#							holder.top_liege = scope:war_target.top_liege
		#						}
		#						any_in_de_jure_hierarchy = {
		#							continue = { tier > tier_county }
		#							tier = tier_county
		#							holder.top_liege = scope:war_target.top_liege
		#							any_neighboring_county = {
		#								holder.top_liege = scope:root_scope.top_liege
		#							}
		#						}
		#						holder.top_liege = scope:war_target.top_liege
		#					}
		#				}
		#				add_to_list = potential_claimants
		#			}
		#			every_courtier = {
		#				limit = {
		#					any_claim = {
		#						tier < scope:root_scope.primary_title.tier
		#						any_in_de_jure_hierarchy = {
		#							continue = { tier > tier_county }
		#							count >= 3
		#							tier = tier_county
		#							holder.top_liege = scope:war_target.top_liege
		#						}
		#						any_in_de_jure_hierarchy = {
		#							continue = { tier > tier_county }
		#							tier = tier_county
		#							holder.top_liege = scope:war_target.top_liege
		#							any_neighboring_county = {
		#								holder.top_liege = scope:root_scope.top_liege
		#							}
		#						}
		#						holder.top_liege = scope:war_target.top_liege
		#					}
		#				}
		#				add_to_list = potential_claimants
		#			}
		#			random_in_list = {
		#				list = potential_claimants
		#				limit = {
		#					any_claim = {
		#						trigger_if = {
		#							limit = {
		#								NOT = {
		#									prev = scope:root_scope
		#								}
		#							}
		#							tier < scope:root_scope.primary_title.tier
		#						}
		#						tier >= tier_empire
		#						any_in_de_jure_hierarchy = {
		#							continue = { tier > tier_county }
		#							count >= 3
		#							tier = tier_county
		#							holder.top_liege = scope:war_target.top_liege
		#						}
		#						any_in_de_jure_hierarchy = {
		#							continue = { tier > tier_county }
		#							tier = tier_county
		#							holder.top_liege = scope:war_target.top_liege
		#							any_neighboring_county = {
		#								holder.top_liege = scope:root_scope.top_liege
		#							}
		#						}
		#						holder.top_liege = scope:war_target.top_liege
		#					}
		#				}
		#				alternative_limit = {
		#					any_claim = {
		#						trigger_if = {
		#							limit = {
		#								NOT = {
		#									prev = scope:root_scope
		#								}
		#							}
		#							tier < scope:root_scope.primary_title.tier
		#						}
		#						tier >= tier_kingdom
		#						any_in_de_jure_hierarchy = {
		#							continue = { tier > tier_county }
		#							count >= 3
		#							tier = tier_county
		#							holder.top_liege = scope:war_target.top_liege
		#						}
		#						any_in_de_jure_hierarchy = {
		#							continue = { tier > tier_county }
		#							tier = tier_county
		#							holder.top_liege = scope:war_target.top_liege
		#							any_neighboring_county = {
		#								holder.top_liege = scope:root_scope.top_liege
		#							}
		#						}
		#						holder.top_liege = scope:war_target.top_liege
		#					}
		#				}
		#				alternative_limit = {
		#					any_claim = {
		#						trigger_if = {
		#							limit = {
		#								NOT = {
		#									prev = scope:root_scope
		#								}
		#							}
		#							tier < scope:root_scope.primary_title.tier
		#						}
		#						tier >= tier_duchy
		#						any_in_de_jure_hierarchy = {
		#							continue = { tier > tier_county }
		#							count >= 3
		#							tier = tier_county
		#							holder.top_liege = scope:war_target.top_liege
		#						}
		#						any_in_de_jure_hierarchy = {
		#							continue = { tier > tier_county }
		#							tier = tier_county
		#							holder.top_liege = scope:war_target.top_liege
		#							any_neighboring_county = {
		#								holder.top_liege = scope:root_scope.top_liege
		#							}
		#						}
		#						holder.top_liege = scope:war_target.top_liege
		#					}
		#				}
		#				save_scope_as = chosen_claimant
		#				random_claim = {
		#					limit = {
		#						trigger_if = {
		#							limit = {
		#								NOT = {
		#									prev = scope:root_scope
		#								}
		#							}
		#							tier < scope:root_scope.primary_title.tier
		#						}
		#						tier >= tier_empire
		#						any_in_de_jure_hierarchy = {
		#							continue = { tier > tier_county }
		#							count >= 3
		#							tier = tier_county
		#							holder.top_liege = scope:war_target.top_liege
		#						}
		#						any_in_de_jure_hierarchy = {
		#							continue = { tier > tier_county }
		#							tier = tier_county
		#							holder.top_liege = scope:war_target.top_liege
		#							any_neighboring_county = {
		#								holder.top_liege = scope:root_scope.top_liege
		#							}
		#						}
		#						holder.top_liege = scope:war_target.top_liege
		#					}
		#					alternative_limit = {
		#						trigger_if = {
		#							limit = {
		#								NOT = {
		#									prev = scope:root_scope
		#								}
		#							}
		#							tier < scope:root_scope.primary_title.tier
		#						}
		#						tier >= tier_kingdom
		#						any_in_de_jure_hierarchy = {
		#							continue = { tier > tier_county }
		#							count >= 3
		#							tier = tier_county
		#							holder.top_liege = scope:war_target.top_liege
		#						}
		#						any_in_de_jure_hierarchy = {
		#							continue = { tier > tier_county }
		#							tier = tier_county
		#							holder.top_liege = scope:war_target.top_liege
		#							any_neighboring_county = {
		#								holder.top_liege = scope:root_scope.top_liege
		#							}
		#						}
		#						holder.top_liege = scope:war_target.top_liege
		#					}
		#					alternative_limit = {
		#						trigger_if = {
		#							limit = {
		#								NOT = {
		#									prev = scope:root_scope
		#								}
		#							}
		#							tier < scope:root_scope.primary_title.tier
		#						}
		#						tier >= tier_duchy
		#						any_in_de_jure_hierarchy = {
		#							continue = { tier > tier_county }
		#							count >= 3
		#							tier = tier_county
		#							holder.top_liege = scope:war_target.top_liege
		#						}
		#						any_in_de_jure_hierarchy = {
		#							continue = { tier > tier_county }
		#							tier = tier_county
		#							holder.top_liege = scope:war_target.top_liege
		#							any_neighboring_county = {
		#								holder.top_liege = scope:root_scope.top_liege
		#							}
		#						}
		#						holder.top_liege = scope:war_target.top_liege
		#					}
		#					save_scope_as = chosen_claim
		#				}
		#			}
		#			start_war = {
		#				cb = claim_cb
		#				target = scope:war_target
		#				claimant = scope:chosen_claimant
		#				target_title = scope:chosen_claim
		#			}
		#		}
		#		# Low prio wars
		#		else_if = {
		#			limit = {
		#				OR = {
		#					has_cb_on = { target = scope:war_target cb = county_conquest_cb }
		#					has_cb_on = { target = scope:war_target cb = minor_religious_war }
		#				}
		#				scope:war_target = {
		#					any_sub_realm_county = {
		#						holder.top_liege = scope:war_target.top_liege
		#						any_neighboring_county = {
		#							holder.top_liege = scope:root_scope.top_liege
		#						}
		#					}
		#				}
		#			}
		#			scope:war_target = {
		#				random_sub_realm_county = {
		#					limit = {
		#						holder.top_liege = scope:war_target.top_liege
		#						any_neighboring_county = {
		#							holder.top_liege = scope:root_scope.top_liege
		#						}
		#					}
		#					save_scope_as = target_title
		#				}
		#			}
		#			if = {
		#				limit = {
		#					has_cb_on = { target = scope:war_target cb = county_conquest_cb }
		#				}
		#				start_war = {
		#					cb = county_conquest_cb
		#					target = scope:war_target
		#					target_title = scope:target_title
		#				}
		#			}
		#			else = {
		#				start_war = {
		#					cb = minor_religious_war
		#					target = scope:war_target
		#					target_title = scope:target_title
		#				}
		#			}
		#		}
		#	}
		#}
		
		if = {
			limit = {
				is_at_war = no
				war_chest_gold >= war_chest_gold_maximum
				NOT = {
					has_character_flag = conqueror_pacing_flag
				}
			}
			ai_start_best_war = { # Lots of nested ai_start_best_war here, priority as follows: Start high-impact CB war, start 3 wars against rulers with 30% or less strength, start 2 wars against rulers with less than 40%, or just start any good war
				cb = {
					claim_cb
				}
				is_valid = {
					scope:target_title.tier >= tier_kingdom
					scope:target_character = {
						current_military_strength < root.current_military_strength
						OR = {
							gold < root.gold
							current_military_strength <= root.fifty_percent_of_current_military_strength
						}
					}
				}
				on_failure = {
					ai_start_best_war = { # Start one very high-impact war with a very good CB
						cb = {
							claim_cb
							religious_war
							# imperial_reconquest_cb # Anbennar
							major_religious_war
							invasion_war
							clan_invasion_war
							# mongol_invasion_war # Anbennar
							directed_great_holy_war
							tribal_subjugation_cb
							de_jure_cb
						}
						is_valid = {
							trigger_if = {
								limit = {
									scope:casus_belli_type = casus_belli_type:claim_cb
								}
								scope:target_title.tier > tier_duchy
							}
							scope:target_character = {
								current_military_strength < root.current_military_strength
								OR = {
									gold < root.gold
									current_military_strength <= root.fifty_percent_of_current_military_strength
								}
							}
						}
						on_failure = {
							random_list = { # Either go for one decent war, or three 'small' wars immediately
								50 = {
									ai_start_best_war = {
										cb = {
											claim_cb
											duchy_conquest_cb
											religious_war
											# imperial_reconquest_cb # Anbennar
											major_religious_war
											invasion_war
											clan_invasion_war
											# mongol_invasion_war # Anbennar
											directed_great_holy_war
											tribal_subjugation_cb
											vassalization_cb
											de_jure_cb
											individual_duchy_de_jure_cb
										}
										is_valid = {
											trigger_if = {
												limit = {
													scope:casus_belli_type = casus_belli_type:claim_cb
												}
												scope:target_title.tier > tier_county
											}
											scope:target_character = {
												current_military_strength < root.current_military_strength
												OR = {
													gold < root.gold
													current_military_strength <= root.fifty_percent_of_current_military_strength
												}
											}
										}
										on_failure = {
											ai_start_best_war = {
												is_valid = {
													scope:target_character = {
														current_military_strength <= root.a_third_of_current_military_strength
														gold < root.gold
													}
												}
												on_failure = {
													ai_start_best_war = {
														is_valid = {
															scope:target_character = {
																current_military_strength < root.forty_percent_of_current_military_strength
																gold < root.gold
															}
														}
														on_failure = {
															ai_start_best_war = {
															}
														}
													}
													ai_start_best_war = {
														is_valid = {
															scope:target_character = {
																current_military_strength < root.forty_percent_of_current_military_strength
																gold < root.gold
															}
														}
													}
												}
											}
											ai_start_best_war = {
												is_valid = {
													scope:target_character = {
														current_military_strength <= root.a_third_of_current_military_strength
														gold < root.gold
													}
												}
											}
											ai_start_best_war = {
												is_valid = {
													scope:target_character = {
														current_military_strength <= root.a_third_of_current_military_strength
														gold < root.gold
													}
												}
											}
										}
									}
								}
								50 = {
									ai_start_best_war = {
										cb = {
											claim_cb
											duchy_conquest_cb
											religious_war
											# imperial_reconquest_cb # Anbennar
											major_religious_war
											invasion_war
											clan_invasion_war
											# mongol_invasion_war # Anbennar
											directed_great_holy_war
											tribal_subjugation_cb
											vassalization_cb
											de_jure_cb
											individual_duchy_de_jure_cb
										}
										is_valid = {
											scope:target_character = {
												current_military_strength <= root.a_third_of_current_military_strength
												gold < root.gold
											}
										}
										on_failure = {
											ai_start_best_war = {
												is_valid = {
													scope:target_character = {
														current_military_strength <= root.a_third_of_current_military_strength
														gold < root.gold
													}
												}
												on_failure = {
													ai_start_best_war = {
														is_valid = {
															scope:target_character = {
																current_military_strength < root.forty_percent_of_current_military_strength
																gold < root.gold
															}
														}
														on_failure = {
															ai_start_best_war = {
															}
														}
													}
													ai_start_best_war = {
														is_valid = {
															scope:target_character = {
																current_military_strength < root.forty_percent_of_current_military_strength
																gold < root.gold
															}
														}
													}
												}
											}
											ai_start_best_war = {
												is_valid = {
													scope:target_character = {
														current_military_strength <= root.a_third_of_current_military_strength
														gold < root.gold
													}
												}
											}
											ai_start_best_war = {
												is_valid = {
													scope:target_character = {
														current_military_strength <= root.a_third_of_current_military_strength
														gold < root.gold
													}
												}
											}
										}
									}
									ai_start_best_war = {
										cb = {
											claim_cb
											duchy_conquest_cb
											religious_war
											# imperial_reconquest_cb # Anbennar
											major_religious_war
											invasion_war
											clan_invasion_war
											# mongol_invasion_war # Anbennar
											directed_great_holy_war
											tribal_subjugation_cb
											vassalization_cb
											de_jure_cb
											individual_duchy_de_jure_cb
										}
										is_valid = {
											scope:target_character = {
												current_military_strength <= root.a_third_of_current_military_strength
												gold < root.gold
											}
										}
									}
									ai_start_best_war = {
										cb = {
											claim_cb
											duchy_conquest_cb
											religious_war
											# imperial_reconquest_cb # Anbennar
											major_religious_war
											invasion_war
											clan_invasion_war
											# mongol_invasion_war # Anbennar
											directed_great_holy_war
											tribal_subjugation_cb
											vassalization_cb
											de_jure_cb
											individual_duchy_de_jure_cb
										}
										is_valid = {
											scope:target_character = {
												current_military_strength <= root.a_third_of_current_military_strength
												gold < root.gold
											}
										}
									}
								}
							}
						}
					}
				}
			}
		}
		
		
		###### Get claimants to join your court!
		if = {
			limit = {
				is_ai = yes
				highest_held_title_tier >= tier_duchy
				is_at_war = no
				war_chest_gold >= war_chest_gold_maximum
				NOT = {
					has_character_flag = conqueror_pacing_flag
				}
				ai_should_get_conqueror_bonuses = yes
			}
			random_character_to_title_neighboring_duchy = {
				limit = {
					holder ?= {
						top_liege.current_military_strength < scope:root_scope.current_military_strength
					}
					any_claimant = {
						is_ruler = no
						is_physically_able_adult = yes
						NOT = {
							is_weak_claimant_due_to_gender_trigger = { FAITH = this.faith CHARACTER = this }
						}
						OR = {
							is_pool_character = yes
							liege ?= {
								NOR = {
									is_ai = no
									is_parent_of = prev
									is_grandparent_of = prev
									is_great_grandparent_of = prev
									this = scope:root_scope
								}
							}
						}
					}
				}
				random_claimant = {
					limit = {
						is_ruler = no
						is_physically_able_adult = yes
						NOT = {
							is_weak_claimant_due_to_gender_trigger = { FAITH = this.faith CHARACTER = this }
						}
						OR = {
							is_pool_character = yes
							liege ?= {
								NOR = {
									is_ai = no
									is_parent_of = prev
									is_grandparent_of = prev
									is_great_grandparent_of = prev
									this = scope:root_scope
								}
							}
						}
					}
					scope:root_scope = {
						add_courtier = prev
					}
				}
			}
		}
	}
}
